{"intents": [
        {"tag": "greeting",
         "patterns": ["Hi", "How are you", "Is anyone there?", "Hello", "Good day", "Whats up","Hai","hii","Hiiiiiiiiiii","Hiii","Haii","Hey","Hey there","Hey!!"],
         "responses": ["Hello!", "Hey there, how can i help you?", "Hi there, how can I help?","Hi there, need help?","Hey nice to meet you. I'm so excited to help you!" ,"Hi Have any questions? Happy to help!"],
		 "redirectTag": "none"
        },
        {"tag": "Dashboard1",
         "patterns": ["Cumulative returns","Portfolio Returns","Cumulative returns of ITD","ITD Portfolio Returns","cumulative returns from inception","portfolio returns from inception","portfolio returns from begining",
		 "midcap related stocks cumulative returns", "Cumulative returns of YTD","midcap stocks cumulative returns","YTD Portfolio Returns",
		"cumulative returns of this year","cumulative returns from begining of year","portfolio returns of current year","smallcap stocks cumulative returns","largecap stocks cumulative returns",
		"small cap stocks cumulative returns","mid cap stocks cumulative returns","large cap stocks cumulative returns","portfolio returns of present year","cumulative returns of current year",
		"cumulative returns of present year","portfolio returns from begining of this year","Cumulative returns of MTD","MTD Portfolio Returns","Cumulative returns of LTD", "LTD Portfolio Returns",
		"cumulative returns of last","portfolio returns of last", "cumulative returns of last years","portfolio returns of last years","portfolio returns of last months","cumulative returns of last months",
		"portfolio returns of last weeks","cumulative returns of last weeks","portfolio returns of last days","cumulative returns of last days","cumulative returns of this month","cumulative returns from begining of month",
		"portfolio returns of current month", "portfolio returns of present month","cumulative returns of current month","cumulative returns of present month","portfolio returns from begining of this month",
		"portfolio cumulative returns midcap stocks", "portfolio cumulative returns smallcap stocks",
		 "cumulative returns from begining","annualized return of portfolio","annualized return of nifty 50","annualized return of nifty midcap","annualized return of nifty smallcap","annualized return of nifty50",
		 "annualized return of nifty mid cap","annualized return of nifty small cap","annual vol","annualized volatility","volatility","annl volatility",
		 "annl return","annual return","annualized return",
		 "annualized volatility of portfolio","annualized volatility of nifty 50","annualized volatility of nifty midcap","annualized volatility of nifty smallcap","annualized volatility of nifty50",
		 "annualized volatility of nifty mid cap","annualized volatility of nifty small cap","sharpe value","cumulative",
		  "sharpe of portfolio","sharpe value of nifty 50","sharpe value of nifty midcap","sharpe value of nifty smallcap","sharpe value of nifty50",
		 "sharpe value of nifty mid cap","sharpe value of nifty small cap","max drawdown of portfolio","max drawdown value of nifty 50","max drawdown value of nifty midcap","max drawdown value of nifty smallcap","max drawdown value of nifty50",
		 "max drawdown value of nifty mid cap","max drawdown value of nifty small cap","max draw down of portfolio","max draw down value of nifty 50","max draw down value of nifty midcap","max draw down value of nifty smallcap",
		 "max draw down value of nifty50","max draw down value of nifty mid cap","max draw down value of nifty small cap"],
         "redirectTag": "FirstDashboard",
		 "responses":[""]
        },
		 {"tag": "Dashboard2",
         "patterns": ["sector wise investment amount","stock wise investment amount","investment amount by stock","investment amount by sector","investment amount group by stock","investment amount group by sector",
		 "returns by sector","returns by stock","stock wise returns","sector wise returns","returns by each sector","returns by each stock","sector level returns","sector level investment amounts","fetch returns by stock wise",
		 "fetch investment amount by stock wise","fetch investment amount by sector wise","fetch actual returns by sector wise","give actual returns by stock wise","top stocks by investment","bottom stocks by investment",
		 "first stocks by investment","last stocks by investment","top sectors by investment","bottom sectors by investment",
		 "first sectors by investment","last sectors by investment","top stocks by returns","bottom stocks by returns",
		 "first stocks by returns","last stocks by returns","top sectors by returns","bottom sectors by returns","market cap wise allocation","exposure by market cap","market cap category wise allocation" ,
		 "marketcap wise allocation","exposure by marketcap","exposure","investment amount","investment","worst stock","top stock","best stock","highest investment sector",
		 "worst  sector","first sectors by returns","last sectors by returns","stock wise investment amount beta greater lesser",
		 "stock wise investment amount pe price to earning greater lesser","stock wise return pb price to book greater lesser","stock wise investment amount return debt greater lesser",
		 "stock wise investment amount roe roce debt greater lesser","stock wise investment amount yield payout greater lesser","stocks stock wise beta greater lesser",
		 "how many stocks beta","number of stocks beta","number of stocks pe book","number of stocks yield payout","number of stocks debt","stocks investment beta greater","stocks investment beta"
		 ],
         "redirectTag": "SecondDashboard",
		 "responses":[""]
        },
		{"tag": "Dashboard3",
         "patterns": ["monthly portfolio returns","monthly portfolio cumulative returns","monthly portfolio nifty50 cumulative returns","monthly portfolio nifty 50 cumulative returns","monthly portfolio nifty smallcap cumulative returns",
		 "monthly portfolio nifty small cap cumulative returns","monthly portfolio nifty smallcap cumulative returns","monthly portfolio nifty small cap cumulative returns","monthly portfolio nifty midcap cumulative returns",
		 "monthly portfolio nifty mid cap cumulative returns","monthly portfolio nifty midcap cumulative returns","monthly portfolio nifty mid cap cumulative returns","positive months of portfolio","negative months of portfolio",
		 "positive months of nifty50","positive months of nifty 50","positive months of nifty mid cap","positive months of nifty midcap","positive months of nifty small cap","positive months of nifty smallcap",
		 "negative months of nifty50","negative months of nifty 50","negative months of nifty mid cap","negative months of nifty midcap","negative months of nifty small cap","negative months of nifty smallcap",
		 "in how many months my portfolio performed positively negatively","in how many months my portfolio performed negatively","in how many months nifty 50 performed positively negatively","in how many months nifty smallcap performed negatively positively",
		 "in how many months nifty midcap performed positively negatively","portfolio outperformance nifty 50 index","portfolio outperformance with nifty smallcap","portfolio outperformance with nifty midcap",
		 "portfolio outperformance against  compared nifty50 ","portfolio outperformance against compared nifty smallcap","portfolio outperformance against compared nifty midcap",
		 "portfolio underperformance nifty 50 index","portfolio underperformance with nifty smallcap","portfolio underperformance with nifty midcap",
		 "portfolio underperformance against  compared nifty50 ","portfolio underperformance against compared nifty smallcap","portfolio underperformance against compared nifty midcap",
		 "which month portfolio performed best against with nifty 50","which month portfolio performed best against with nifty smallcap","which month portfolio performed best against with nifty midcap",
		 "which month portfolio performed worst against with nifty 50","which month portfolio performed worst against with nifty smallcap","which month portfolio performed worst against with nifty midcap",
		 "average excess return portfolio nifty 50","average excess return portfolio nifty smallcap","average excess return portfolio nifty midcap","average excess return portfolio nifty small cap","average excess return portfolio nifty mid cap",
		 "average monthly return of nifty 50","average monthly return of nifty smallcap","average monthly return of nifty midcap","average monthly return of portfolio","average monthly return of nifty50","average monthly return of nifty mid cap",
		"average monthly return of nifty small cap","correlation of portfolio nifty 50","correlation of portfolio nifty smallcap","correlation of portfolio nifty midcap","correlation of portfolio nifty 50","correlation of portfolio nifty small cap",
		"correlation of portfolio nifty mid cap","tracking error of portfolio nifty 50","tracking error of portfolio nifty smallcap","tracking error of portfolio nifty midcap","tracking error of portfolio nifty 50","tracking error of portfolio nifty small cap",
		"tracking error of portfolio nifty mid cap","out performance","under performance","nifty out performance","midcap out performance","small cap out performance",
		"nifty under performance","mid cap under performance","small cap under performance","best month","worst month"
		 ],
         "redirectTag": "MonthlyCumulativeDashboard",
		 "responses":[""]
        },
		{"tag": "Dashboard4",
         "patterns": ["expected returns of portfolio","expected Return",  "actual vs expected return","return actual expected","expected returns vs actual returns","actual expected",
		 "actual expected returns","actual expected returns of portfolio of ytd","actual expected returns of portfolio of mtd","actual expected returns of portfolio of last year"
		 ],
         "redirectTag": "ActualExpectedDashboard",
		 "responses":[""]
        },
		{"tag": "Dashboard5",
         "patterns": ["target price","analyst target price",  "52 week low high","52 week low","52 week high","upside potential","downside potential",
		 "average upside price","average downside price","upside downside price","upside downside potential","target price analysis","upside","downside","52 week value values"
		 ],
         "redirectTag": "TargetPriceDashboard",
		 "responses":[""]
        },
		{"tag": "Dashboard6",
         "patterns": ["portfolio beta","give portfolio beta"," portfolio beta"," risk of portfolio"," portfolio risk"," portfolio var",
		 "stocks wise risk","stocks wise var beta","stocks wise volatility","stocks wise annualized volatility",
		 "stocks wise annualized return","annualized return by stock","annualized return by stocks","annualized volatility by stocks",
		 "annualized volatility by stock","beta by stock","risk metrics by stock","portfolio risk metrics","risk dashboard","stock risk dashboard"]
		 ,
         "redirectTag": "RiskDashboard",
		 "responses":[""]
        },
		{"tag": "FactorInfo",
         "patterns": ["size factor","valuation factor","growth factor","profitability factor","leverage factor",
         "risk factor","piotroski score","factor value","factor data","show factor data",
		 "Price to Earnings","Price to Book","Dividend Yield values","Dividend payout values","Sales Growth","EPS Growth",
		 "ROE value","ROCE Value","Net Income Margin","FCF Margin","Total Asset values",
		 "Debt and Equity","Idiosyncratic vol","Market cap","Sales","PE","price to earnings","PB","price to book"
		,"Dividend Yield" ,"Dividend Payout" ,"Sales Growth ","QoQ Growth","CAGR"
		, "EPS Growth"    ,"EPS QoQ Growth",   "EPS Growth CAGR"
		,"ROE","ROCE" ,"EBITDA Margin", "Net Income Margin","FCF Margin"
		,"Total Assets","Net Debt or FCF" , "Net Debt or EBITDA ","leverage values","profitability values","growth values"
		,"Debt Equity","Piotroski Score"],
		 "responses": ["i found a dashboard related to FactorInfo"],
		 "redirectTag":"FactorInfo"
        },
		{"tag": "Dashboard7",
         "patterns": ["fama french model","fama french","fama french current","fama french data","fama data"],
         "redirectTag": "FamaDashboard",
		 "responses":[""]
        },
		{"tag": "Dashboard8",
         "patterns": ["risk overview","return vs volatility","return vs annualized volatility","annual return vs annual volatility","risk performance overview","beta vs vol",
		 "beta vs volatility"],
         "redirectTag": "RiskOverview",
		 "responses":[""]
        },
		{"tag": "Dashboard9",
         "patterns": ["roe history","return on equity history data ","pe history data","price to earning history","pb history data","price to book history data",
		 "debt to equity history data","debt history data","historical multiples"],
         "redirectTag": "HistoricalMultiples",
		 "responses":[""]
        },
		{"tag": "Dashboard10",
         "patterns": ["portfolio vs with oil"," vs with inflation"," vs with vix rate"," vs with interest rate","oil","inflation","vix","interest rate","fx rate","gold",
		 "portfolio vs with gold"," vs with gold",
		 " vs with fx rate"],
         "redirectTag": "MacroImpact",
		 "responses":[""]
        },
		{"tag": "Dashboard11",
         "patterns": ["moving average 20","moving average 50","moving average 100","moving average 200","moving average 9","moving average",
						"MA9","MA20","MA50","MA100","MA200","MA26","moving average 26"],
         "redirectTag": "MovingAverage",
		 "responses":[""]
        },
		{"tag": "Dashboard12",
         "patterns": ["rsi","volume","stock rsi","stock volume","vol vs price","volume vs price","price","price vs vol","price vs volume"],
         "redirectTag": "VolumeVolatility",
		 "responses":[""]
        }
		
		
		]}